<?xml version="1.0" encoding="UTF-8" standalone="no"?>
<svg xmlns="http://www.w3.org/2000/svg" height="600" width="800" version="1.1" viewBox="0 0 211.66666 158.75">
 <g>
  <path d="m311.5 32.94c-0.5212 0.0061-1.28 0.5785-1.626 0.675-0.5597 0.1561-0.6697-0.0044-1.659 1.12-0.3094 0.4716-0.7908 1.119-1.07 1.438-0.311 0.3561-0.5655 1.05-0.6592 1.797-0.1278 1.019-0.0668 1.368 0.3772 2.142 0.4165 0.7266 0.4751 1.013 0.2738 1.336-0.4547 0.7302-1.383 0.8973-2.562 0.4606-0.3897-0.1444-0.7561-0.2424-0.9951-0.2775l-0.0226-0.02448s-0.5027-0.02097-1.241 0.1945c-0.3675 0.1072-0.6787 0.3441-0.899 0.5549-0.0376 0.02825-0.072 0.05246-0.112 0.08387-0.7297 0.574-0.8793 0.5764-1.432 0.0236-0.2423-0.2423-0.9159-0.7192-1.497-1.06-1.874-1.098-2.369-0.1594-2.198 4.169 0.0699 1.776 0.0983 1.861 0.6483 1.938 0.3163 0.04457 0.8072 0.3318 1.091 0.6383 0.4898 0.5286 0.6602 0.5572 3.298 0.5572 1.53 0 3.045-0.09994 3.368-0.2226 0.4134-0.1572 0.8461-0.1282 1.466 0.09929v0.000456c1.873 0.6873 3.694 0.3385 5.346-1.023 0.9193-0.7577 1.453-0.6416 1.453 0.316 0 0.9296 0.4094 1.063 3.272 1.063 3.559 0 3.678-0.2003 1.385-2.339-0.9016-0.8412-1.639-1.648-1.639-1.793 0-0.1447-0.3172-0.7628-0.7055-1.374-0.8408-1.323-0.777-1.858 0.374-3.132 0.8917-0.987 0.9516-1.298 0.4402-2.287-0.255-0.4932-0.3131-1.011-0.2045-1.83 0.5939-0.6484 0.1474-1.645-1.095-1.912-1.574-0.9718-0.9516-1.342-3.175-1.333zm0.6837 3.343c0.3365-0.0088 0.7011 0.02141 1.098 0.08841 1.004 0.154 1.858 0.2646 1.625 0.9161-0.3536 0.9898 1.069 0.7283 0.511 2.098-0.7002 1.641-3.451 0.8745-3.791 0.4405-0.1589-0.1915-0.3649-0.6354-0.5333-0.6354-0.5501 0-0.6318 0.5016-0.1587 0.9747 0.3458 0.3458 0.7651 0.4608 1.653 0.4538 0.8354-0.0061 1.19 0.08221 1.19 0.2974 0 0.5791-0.6364 0.8329-2 0.7975-0.7511-0.01948-1.65 0.04316-1.997 0.1392-0.5403 0.1494-0.9596 0.08536-1.2-0.4429-0.2182-0.4784-0.8608-0.7886-0.6483-1.377 0.151-0.4177 0.791-0.9813 0.8335-1.14 0.2177-0.8125 0.6846-0.6141 1.07-1.1 0.2433-0.7239 0.5815-1.095 0.9863-1.289 0.1891-0.09045 0.2696-0.4294 0.4849-0.46 0.2385-0.03395 0.6145 0.2451 0.8777 0.2385zm-0.3708 0.9176c-0.0822 0.0035-0.1595 0.01807-0.2294 0.04492-0.5594 0.2147-0.5308 0.6317 0.2678 1.08 0.1835 0.103 0.5349 0.1261 0.6824 0.1725 0.5269 0.1657 0.8082 0.1995 0.7336-0.3209-0.0713-0.4978-0.8792-1.002-1.454-0.9766zm-14.39 4.441c0.1088-0.0044 0.2727 0.06738 0.5544 0.2131 0.8204 0.4242 1.294 1.166 1.476 2.311 0.1287 0.8093 0.061 0.998-0.6016 1.68-0.7118 0.7329-1.3 0.9553-1.636 0.6188-0.1922-0.1922-0.2061-4.084-0.0163-4.579 0.0611-0.1593 0.1147-0.2396 0.2235-0.2439zm5.576 0.2049c0.1143-0.0026 0.2174 0.01255 0.3106 0.03264 0.0371 0.185 0.1336 0.4481 0.2752 0.7258 0.4098 0.8038 0.6045 2.158 0.3101 2.158-0.3339 0-2.424-1.534-2.424-1.779 0-0.1525 0.1643-0.4414 0.365-0.642 0.00018-0.000175 0.00025-0.000272 0.00044-0.000447 0.1341-0.1064 0.3597-0.2593 0.7236-0.4049 0.1539-0.06159 0.3023-0.08685 0.4389-0.08977zm8.371 0.6841c0.4609 0.0061 2.119-0.2697 2.624-0.1334-0.2681 0.3852 0.8507 0.4832-0.8535 1.492-0.3376 0.3524-0.5206 1.01-0.607 1.01-0.1733 0-1.545-2.045-1.545-2.286 0-0.06185 0.1518-0.08589 0.3817-0.08299zm-4.831 0.1424c0.2946 0 1.535 1.624 2.127 2.784 0.7972 1.563 0.954 2.264 0.5413 2.422-0.5681 0.218-0.78 0.1549-0.9176-0.2734-0.6008-1.87-1.406-3.699-1.711-3.888-0.2803-0.1732-0.3132-1.045-0.0395-1.045zm1.829 0.07027c0.1599-0.0044 0.4916 0.02825 0.8542 0.08703 0.7252 0.1177 0.9972 0.3294 1.556 1.211 0.3811 0.6016 0.6508 1.322 0.6175 1.647-0.0872 0.8506-0.6973 0.8256-1.207-0.04939-0.2438-0.4186-0.7913-1.221-1.217-1.784-0.4255-0.5626-0.7413-1.055-0.7014-1.095 0.01-0.01 0.0442-0.01535 0.0975-0.01676zm-3.288 0.7925c0.0523-0.000798 0.1256 0.09121 0.2294 0.2394 0.6173 0.8814 1.258 2.471 1.264 3.134 0.005 0.6405-0.0692 0.6727-1.098 0.4747-0.4937-0.09508-0.5223-0.2107-0.5223-2.109 0-1.287 0.0118-1.737 0.127-1.739zm9.802 1.386c0.009 0.1827-0.1409 0.4289-0.4829 0.7247-0.6901 0.5969-0.9856 0.4006-1.185 0.07773-0.1694-0.2742 0.676-1.43 1.197-1.613 0.1144-0.04027 0.4643 0.6808 0.4709 0.8107zm-12.8-0.1719 0.8569 0.8573c0.8735 0.8735 1.165 2.018 0.5667 2.221-0.7454 0.2533-4.356 0.03492-4.677-0.2829-0.3996-0.3951 0.5077-1.361 1.426-1.518 0.5005-0.08571 1.076-0.3897 1.35-0.7132zm13.41 1.304c0.2858 0.0018 0.475 0.6089 1.084 0.9176 0.6333 0.3209 1.151 0.686 1.151 0.8115s-0.5484 0.2176-1.219 0.2049c-1.351-0.02562-2.298-0.2331-2.277-0.4992 0.008-0.09575 0.0136-0.2614 0.0136-0.3686 0.3589-0.5869 0.7821-0.957 1.247-1.066z" transform="translate(-139 -16.67)" stroke-width=".2321" fill="#080808"/>
 </g>
</svg>
