<?xml version="1.0" encoding="UTF-8" standalone="no"?>
<svg xmlns="http://www.w3.org/2000/svg" height="600" width="800" version="1.1" viewBox="0 0 211.66666 158.75">
 <g>
  <path d="m129.7 86.13c-0.9141-0.0282-1.837 0.2636-2.423 0.8848-0.2591 0.2745-0.5668 0.5395-0.6834 0.5888s-0.3918 0.4316-0.6119 0.8504c-0.3685 0.7013-0.3725 0.8455-0.0516 1.822 0.5614 1.708 0.805 2.039 1.793 2.442 0.8181 0.3331 0.8785 0.4042 0.4803 0.5652-0.2505 0.1013-0.814 0.1937-1.252 0.2052-1.02 0.0269-2.445 0.681-3.245 1.49-1.049 1.06-0.7005 2.531 0.5571 2.353 0.4153-0.0589 0.5404-0.2402 0.6001-0.8693 0.089-0.9374 0.3308-1.132 1.411-1.137 1.105-0.005 1.706 0.4854 2.134 1.742 0.5762 1.691 0.484 2.496-0.3761 3.285-1.019 0.9345-1.588 1.034-2.414 0.4234-0.7024-0.5193-1.313-0.4828-1.533 0.0919-0.1567 0.4085 0.6921 2.223 1.394 2.98 0.2965 0.3199 0.6773 0.5818 0.8467 0.5818s1.818-0.881 3.664-1.958c3.803-2.218 4.282-2.303 4.691-0.83 0.1301 0.4686 0.2373 1.185 0.238 1.592 0.003 0.6885 0.0544 0.7398 0.7699 0.7398 1.277 0 4.038-0.7109 4.178-1.076 0.195-0.5081-0.3673-0.7383-1.816-0.7419-0.7201-0.002-1.307-0.0802-1.304-0.1741s0.1088-0.6181 0.2348-1.165c0.3008-1.305 0.1297-1.757-0.9149-2.417-0.7429-0.469-0.9353-0.7727-1.348-2.133-0.265-0.8723-0.4814-1.78-0.4814-2.017 0-1.539 2.847-1.14 3.002 0.4207 0.1491 1.499 1.552 1.357 1.552-0.1563 0-1.773-1.848-2.777-4.612-2.505-1.75 0.1725-2.03-0.0513-1.539-1.235 0.3891-0.9395 0.0922-2.826-0.5684-3.611-0.5523-0.6564-1.458-1.004-2.372-1.033z" stroke="#c6b465" stroke-width="0.4" fill="#c6b465"/>
 </g>
</svg>
