<?xml version="1.0" encoding="UTF-8" standalone="no"?>
<svg xmlns="http://www.w3.org/2000/svg" height="600" width="800" version="1.1" viewBox="0 0 211.66666 158.75">
 <g>
  <g stroke-width=".06747" transform="matrix(1.04 0 0 1.04 -148.2 -20.6)">
   <path d="m322.5 117.4c0.4761-0.2943 1.119-1.461 1.119-2.031 0-0.1857 0.0455-0.4467 0.1012-0.5799s0.1012-0.3242 0.1012-0.4243c0-0.1002 0.0477-0.3223 0.1061-0.4935 0.1694-0.4973 0.1179-0.661-0.2748-0.8735-0.5452-0.295-0.764-0.3909-0.8918-0.391-0.0661-0.00002-0.3176-0.1214-0.5588-0.2698s-0.4881-0.2698-0.5487-0.2698c-0.1124-0.00004-0.1908 0.1846-0.1925 0.453-0.00051 0.0822-0.0854 0.2492-0.1887 0.3711s-0.2701 0.3498-0.3708 0.5065c-0.3224 0.5019-0.8231 0.6202-1.239 0.2927-0.0972-0.0765-0.2288-0.139-0.2925-0.139s-0.2599-0.0766-0.436-0.1703c-0.291-0.1547-0.3783-0.1679-0.957-0.1445-0.5267 0.0213-0.6535 0.0478-0.7333 0.1534-0.6462 0.8545-0.2498 1.814 1.012 2.448 0.6701 0.337 1.118 0.6264 1.544 0.9969 0.1742 0.1515 0.5524 0.3596 0.9269 0.51 0.5552 0.2229 0.6877 0.2511 1.082 0.2298 0.3147-0.017 0.5218-0.0692 0.6925-0.1747z" fill="#3196db"/>
   <path d="m330.6 117c0.8669-0.0416 2.063-0.1673 2.328-0.2445 0.7146-0.2085 1.326-0.657 1.423-1.044 0.0821-0.327-0.148-0.7835-0.5968-1.184-0.232-0.2072-0.4976-0.4158-0.5904-0.4636s-0.2515-0.1642-0.3528-0.2586c-0.1758-0.1639-0.1966-0.1676-0.4606-0.0804-0.2481 0.0819-0.3006 0.0783-0.5107-0.0349-0.1288-0.0694-0.3466-0.2435-0.4839-0.387-0.213-0.2225-0.2795-0.2549-0.4521-0.2203-0.9097 0.1825-2.172 0.3121-2.572 0.2641-0.6882-0.0826-0.7953 0.0971-0.8077 1.355-0.007 0.7046-0.0372 1.011-0.1193 1.206-0.2056 0.4882-0.107 0.9897 0.2202 1.119 0.1567 0.062 1.349 0.0513 2.976-0.0268z" fill="#3196db"/>
   <path d="m313 113.4c0.102-0.0527 0.4111-0.3336 0.687-0.6241 0.2758-0.2905 0.6329-0.642 0.7936-0.7812l0.2921-0.253 0.6537-0.00051c0.7232-0.00051 1.554 0.0942 2.07 0.236 0.1855 0.0509 0.5802 0.128 0.8771 0.1714 0.2968 0.0434 0.7134 0.1517 0.9256 0.2408 0.459 0.1926 0.8018 0.2086 0.9413 0.0439 0.1094-0.1292 0.3257-0.868 0.3257-1.112 0-0.2282-0.5221-1.262-0.7837-1.553-0.2294-0.2544-0.2909-0.5216-0.1657-0.7196 0.035-0.0554 0.242-0.1175 0.4909-0.1475 0.8933-0.1075 1.601-0.5188 1.693-0.9836 0.0823-0.417-0.307-0.6255-0.7487-0.4009-0.2075 0.1055-0.9569 0.2455-1.301 0.2431-0.4052-0.003-1.325-0.3093-1.832-0.6098-0.2698-0.1602-0.8172-0.4868-1.216-0.7259l-0.7259-0.4346-0.2926 0.1118c-0.2156 0.0823-0.5128 0.3384-1.129 0.9731-0.8533 0.8784-1.787 1.679-2.217 1.902-0.1316 0.0681-0.4108 0.2777-0.6203 0.4659-0.3252 0.292-0.3925 0.394-0.4594 0.697-0.0431 0.1952-0.1361 0.5827-0.2066 0.861-0.2864 1.13-0.3501 1.557-0.2633 1.767 0.2032 0.4905 1.673 0.9118 2.211 0.6336z" fill="#cdcdcd"/>
   <path d="m328.8 112.1c0.3154-0.01 0.6797-0.0527 0.8096-0.096s0.3458-0.097 0.4799-0.1194c0.3606-0.0603 0.5001-0.2514 0.4901-0.6716-0.009-0.3853-0.242-0.92-0.5079-1.166-0.2551-0.2361-1.038-0.5008-1.339-0.4527-0.1496 0.0239-0.3637 0.003-0.5157-0.0506-0.2386-0.084-0.9991-0.1407-1.576-0.1175-0.4309 0.0173-0.7061 0.005-0.9187-0.0422-0.1421-0.0313-0.2811-0.01-0.4283 0.0663-0.1825 0.0944-0.269 0.1005-0.5318 0.038-0.2634-0.0627-0.3994-0.0528-0.8453 0.0618-0.3386 0.087-0.6251 0.1215-0.7895 0.0952-0.142-0.0227-0.3293-0.0234-0.4163-0.002-0.1904 0.0478-0.7252 0.685-0.7252 0.8642 0 0.1544 0.562 0.5292 0.7935 0.5292 0.1983 0 0.3896 0.0982 0.6762 0.3472 0.1219 0.1059 0.2556 0.1925 0.2972 0.1925s0.1696 0.0702 0.2844 0.1559c0.2915 0.2177 0.5886 0.327 1.038 0.3814 0.3425 0.0415 2.109 0.0349 3.725-0.014z" fill="#3196db"/>
   <path d="m332.4 110.4c0.3536-0.0928 0.5615-0.2386 0.899-0.6305 0.5825-0.6762 0.9191-1.325 1.091-2.103 0.1214-0.5486-0.0285-1.472-0.2752-1.695-0.0774-0.0701-0.1816-0.2252-0.2315-0.3446-0.114-0.2728-0.7021-0.5852-1.309-0.6952-0.6288-0.114-1.448-0.0277-1.693 0.1784-0.1884 0.1585-0.7434 1.11-0.8396 1.44-0.1275 0.4368-0.4037 1.054-0.582 1.3-0.1084 0.1496-0.1971 0.3265-0.1971 0.3931 0 0.1973 0.2663 0.331 0.6592 0.331 0.3018 0 0.3857-0.0285 0.5247-0.1785 0.091-0.0982 0.1654-0.2037 0.1654-0.2344 0-0.0923 0.3842-0.2618 0.5934-0.2618 0.2328 0 0.4014 0.168 0.4898 0.4884 0.0561 0.2032 0.0331 0.304-0.1719 0.7538-0.2811 0.6168-0.2924 0.7971-0.0682 1.091 0.2267 0.2972 0.3604 0.3209 0.9447 0.1675z" fill="#3196db"/>
   <path d="m311.7 101c-0.4586-0.015-0.831 0.3538-1.274 1.235-0.3145 0.6256-0.3511 0.6705-0.6504 0.794-0.1745 0.072-0.5146 0.234-0.7558 0.36s-0.56 0.25-0.7084 0.2754c-0.7744 0.1327-1.642 0.6281-1.792 1.023-0.0855 0.225-0.0793 2.49 0.008 2.803 0.1333 0.4799 0.881 0.8567 2.118 1.068 0.4105 0.07 0.9587 0.1708 1.218 0.224 0.2598 0.0532 0.533 0.0849 0.6072 0.0704s0.1703-0.0268 0.2136-0.0273c0.1362-0.002 1.115-0.6813 1.642-1.14 0.2783-0.2424 0.8616-0.7984 1.296-1.236 0.6342-0.6382 0.8052-0.8515 0.8672-1.082 0.1312-0.487-0.023-0.8147-1.562-3.319-0.245-0.3987-0.8162-0.9664-1.025-1.019-0.0695-0.0174-0.1368-0.0275-0.2023-0.0296zm-1.451 2.776c0.1499-0.004 0.3164 0.0396 0.5624 0.1243 0.4649 0.16 0.6501 0.3169 0.9142 0.7748 0.3525 0.6112 0.2202 1.323-0.3342 1.798-0.2815 0.241-0.6672 0.3979-0.962 0.3915-0.0885-0.002-0.3179-0.0639-0.5098-0.1377-0.7208-0.2772-1.099-0.8835-1.012-1.621 0.057-0.481 0.2212-0.7244 0.7113-1.054 0.272-0.1832 0.4374-0.2692 0.6301-0.275zm-0.1398 1.006c-0.0648-0.001-0.1324 0.0115-0.2044 0.0368-0.2339 0.0819-0.3368 0.4607-0.2088 0.7695 0.1512 0.365 0.6287 0.571 0.9389 0.4051 0.0667-0.0357 0.159-0.1562 0.2052-0.2678 0.0782-0.1888 0.0669-0.2263-0.1652-0.5425-0.2002-0.2728-0.3711-0.398-0.5656-0.4011z" fill="#cdcdcd"/>
   <path d="m325.2 108.2c1.112-0.0265 1.289-0.0658 1.289-0.2861 0-0.059-0.121-0.3516-0.2689-0.6502s-0.2877-0.6944-0.3107-0.8796c-0.0456-0.3672-0.3258-1.153-0.4695-1.316-0.0495-0.0562-0.1197-0.2344-0.156-0.3961-0.0363-0.1616-0.0928-0.3207-0.1255-0.3534s-0.2801-0.0872-0.5498-0.1211c-0.3853-0.0484-0.554-0.0399-0.7876 0.0397-0.2214 0.0754-0.3716 0.0854-0.5886 0.0392-0.1602-0.0342-0.3507-0.0389-0.4232-0.0105-0.2356 0.0922-0.5504 0.064-0.9524-0.0851-0.9314-0.3456-1.144-1.005-0.5855-1.817 0.3194-0.4643 0.4277-0.7401 0.4277-1.089 0-0.4761-0.4444-1.009-0.9718-1.166-0.7037-0.209-1.427-0.09257-1.937 0.3119-0.6301 0.499-0.6722 1.245-0.1233 2.184 0.1803 0.3086 0.2664 0.5367 0.2664 0.706 0 0.3353 0.1766 0.9112 0.3768 1.228 0.0896 0.142 0.163 0.289 0.163 0.3268 0 0.1199 0.4917 0.6201 0.908 0.9236 0.4479 0.3266 0.92 0.5252 1.422 0.5984 0.429 0.0625 0.6356 0.1697 0.8939 0.4639 0.1899 0.2163 0.2072 0.2748 0.1963 0.6654-0.009 0.318 0.0202 0.4772 0.1128 0.6186 0.1235 0.1885 0.1296 0.1899 0.6064 0.1408 0.2649-0.0273 0.9792-0.0614 1.587-0.0759z" fill="#3196db"/>
   <path d="m328.2 107.8c0.0898-0.1068 0.2316-0.3876 0.315-0.6241 0.173-0.4904 0.2586-0.6725 0.5831-1.24 0.415-0.7252 0.4386-0.8254 0.2366-1.008-0.1006-0.091-0.1925-0.1079-0.3988-0.073-0.1711 0.0289-0.3861 0.008-0.5945-0.0568-0.3354-0.1049-1.178-0.245-1.473-0.245-0.2898 0-0.2847 0.2592 0.019 0.9614 0.1484 0.3432 0.2909 0.744 0.3166 0.8907s0.1017 0.3746 0.169 0.5064 0.1586 0.3761 0.203 0.5429c0.0859 0.3226 0.2372 0.5394 0.3763 0.5394 0.0466 0 0.1582-0.0874 0.2481-0.1941z" fill="#3196db"/>
   <path d="m316.7 104.6c0.9402-0.9674 1.09-1.186 1.038-1.509-0.0813-0.5011-0.496-0.6638-0.7974-0.3128-0.0874 0.1018-0.467 0.4928-0.8436 0.8688-0.7393 0.7382-0.8332 0.8667-0.8332 1.14 0 0.221 0.3358 0.5727 0.5467 0.5727 0.1053 0 0.3797-0.234 0.8899-0.759z" fill="#cdcdcd"/>
   <path d="m329.6 103.4c0.2467-0.0324 0.6216-0.1569 0.9445-0.3137 0.5878-0.2853 0.7874-0.5086 1.011-1.131 0.0678-0.1885 0.1628-0.4187 0.2112-0.5115 0.1183-0.2268 0.1126-0.813-0.01-0.9874-0.1571-0.2242-1.65-0.5097-1.917-0.3666-0.1299 0.0695-0.2786 0.3965-0.2786 0.6128 0 0.0637-0.0642 0.1974-0.1428 0.2973-0.3032 0.3854-0.6552 0.1091-0.9359-0.7345-0.1434-0.4311-0.2197-0.5083-0.5018-0.5083-0.1904 0-0.3348 0.161-0.441 0.4915-0.0865 0.2694-0.2519 0.414-0.5604 0.4898-0.3918 0.0964-0.7988-0.2663-0.8957-0.7981-0.069-0.3788-0.2169-0.5223-0.5704-0.5535-0.167-0.01474-0.4735-0.04616-0.6812-0.0698-0.523-0.05952-1.155 0.07731-1.535 0.3324-0.3661 0.2458-0.4803 0.4425-0.4817 0.8298-0.00076 0.2376 0.0384 0.3217 0.2427 0.5201 0.4573 0.4441 0.7015 0.453 2.608 0.0952 0.8316-0.156 0.9485-0.1252 1.152 0.3039 0.1379 0.2906 0.1403 0.4462 0.01 0.6325-0.1692 0.2415-0.5037 0.3078-1.285 0.2545-0.783-0.0534-0.9074-0.0118-0.9074 0.3032 0 0.3523 0.4266 0.5717 1.248 0.642 0.2968 0.0254 0.646 0.0775 0.7759 0.1159 0.2922 0.0863 1.736 0.1765 2.193 0.137 0.1855-0.0161 0.5214-0.0534 0.7464-0.083z" fill="#cdcdcd"/>
   <path d="m332.2 99.03c0.1516-0.1425 0.1562-0.1807 0.1562-1.322 0-1.457-0.0341-1.557-0.5944-1.755-0.4493-0.1584-0.9413-0.2357-1.598-0.2513-0.2847-0.0068-0.5563-0.05488-0.6838-0.1212-0.1523-0.07918-0.3053-0.09887-0.5465-0.07032-0.2538 0.03007-0.378 0.01145-0.5128-0.0769-0.1235-0.08093-0.2658-0.1074-0.4655-0.08661-0.1582 0.01647-0.3635-0.000765-0.4563-0.03841-0.0928-0.0376-0.3812-0.09041-0.6409-0.1174-0.2598-0.02695-0.6544-0.07027-0.8771-0.09627-0.3944-0.04606-0.4132-0.04079-0.7322 0.2042-0.1852 0.1422-0.3716 0.3572-0.4292 0.4949-0.0559 0.1339-0.159 0.3162-0.229 0.4052-0.07 0.08896-0.1578 0.2753-0.1952 0.414s-0.1308 0.3321-0.2075 0.4297l-0.1396 0.1775-0.8672-0.04389-0.8672-0.04389-0.2074 0.2073c-0.213 0.2131-0.2568 0.4041-0.1418 0.619 0.097 0.1813 0.2253 0.2131 1.115 0.277 1.354 0.09714 2.853 0.2494 2.931 0.2976 0.0704 0.0435 0.5902 0.1163 1.691 0.2368 0.2783 0.03048 0.7489 0.09187 1.046 0.1364 0.4434 0.06655 2.291 0.2219 3.099 0.2606 0.1207 0.0058 0.259-0.0478 0.3542-0.1372z" fill="#3196db"/>
   <path d="m321.3 102.3c0.3194-0.4643 0.4277-0.7401 0.4277-1.089 0-0.4761-0.4444-1.009-0.9718-1.166-0.7037-0.209-1.427-0.09257-1.937 0.3119-0.6301 0.499-0.6722 1.245-0.1233 2.184 0.1803 0.3086 2.046 0.5715 2.605-0.2404z" fill="#cdcdcd"/>
  </g>
 </g>
</svg>
