<?xml version="1.0" encoding="UTF-8" standalone="no"?>
<svg xmlns="http://www.w3.org/2000/svg" height="600" width="800" version="1.1" viewBox="0 0 211.66666 158.75">
 <g>
  <path d="m153.2 70.4-1.653-1.216s0.1459-2.14 0.389-2.626c0.2431-0.4863 0.6321-1.848 0.6321-1.848l1.118 0.1945 0.0972 2.14 1.167 1.264 0.0972 1.41z" fill-rule="evenodd" transform="translate(-139 -16.67)" stroke="#000" stroke-width=".2751px"/>
 </g>
</svg>
