<?xml version="1.0" encoding="UTF-8" standalone="no"?>
<svg xmlns="http://www.w3.org/2000/svg" height="600" width="800" version="1.1" viewBox="0 0 211.66666 158.75">
 <g>
  <path style="font-variant-ligatures:normal;font-variant-numeric:normal;font-variant-caps:normal;font-feature-settings:normal" d="m57.97 20.84-1.284 1.014h-2.585l-1.284-1.014 1.284-0.9967h2.585zm1.504 7.467-1.284 0.9967-1.301-0.9967v-2.01l1.301-0.9967 1.284 0.9967zm-1.487-3.159-1.284 0.9967h-2.585l-1.284-0.9967 1.284-0.9967h2.585zm-4.055-1.149-1.301 0.9967-1.284-0.9967v-2.01l1.284-0.9967 1.301 0.9967zm4.038 5.507-1.301 0.9967h-2.568l-1.301-0.9967 1.301-1.014h2.568z"/>
 </g>
</svg>
